Name,WeightClassKg,Division,Sex,Best3SquatKg,Best3BenchKg,Best3DeadliftKg,TotalKg,Event,Equipment,Place
Sandra Lee,56,Open,F,137.5,62.5,150,350,SBD,Single-ply,1
Glendora Tant,60,Open,F,100,62.5,117.5,280,SBD,Single-ply,1
Duane Nagamine,52,Open,M,142.5,97.5,142.5,382.5,SBD,Single-ply,1
Galen Takushi,56,Open,M,162.5,140,217.5,520,SBD,Single-ply,1
Douglas Ortiz,56,Open,M,125,137.5,150,412.5,SBD,Single-ply,2
Mark Matsumoto,56,Open,M,125,97.5,165,387.5,SBD,Single-ply,3
Michael Saito,56,Open,M,125,97.5,155,377.5,SBD,Single-ply,4
Fred Shaver,56,Open,M,110,70,122.5,302.5,SBD,Single-ply,5
Michael Kimura,60,Open,M,210,137.5,205,552.5,SBD,Single-ply,1
Joseph Pagan,60,Open,M,185,137.5,185,507.5,SBD,Single-ply,2
Sean Kaneshiro,67.5,Open,M,227.5,165,242.5,635,SBD,Single-ply,1
Gary Omoto,67.5,Open,M,237.5,160,227.5,625,SBD,Single-ply,2
Garrett Okubo,67.5,Open,M,255,142.5,227.5,625,SBD,Single-ply,3
Eddie Shimabuku,67.5,Open,M,220,120,262.5,602.5,SBD,Single-ply,4
Michael Oshiro,67.5,Open,M,197.5,147.5,232.5,577.5,SBD,Single-ply,5
Spencer Gibu,67.5,Open,M,205,152.5,200,557.5,SBD,Single-ply,6
Robert Houck,67.5,Open,M,227.5,137.5,192.5,557.5,SBD,Single-ply,7
Sin Tunstall,67.5,Open,M,177.5,125,202.5,505,SBD,Single-ply,8
Brant Yamamoto,67.5,Open,M,167.5,102.5,195,465,SBD,Single-ply,9
Dan Lagon,67.5,Open,M,165,100,182.5,447.5,SBD,Single-ply,10
Blane Chong,75,Open,M,255,147.5,287.5,690,SBD,Single-ply,1
David Ricks,75,Open,M,260,162.5,265,687.5,SBD,Single-ply,2
Michael Awai,75,Open,M,230,182.5,245,657.5,SBD,Single-ply,3
Robert McDurmin,75,Open,M,232.5,155,232.5,620,SBD,Single-ply,4
Brad Padilla,75,Open,M,237.5,137.5,215,590,SBD,Single-ply,5
Wendall Omura,75,Open,M,210,145,217.5,572.5,SBD,Single-ply,6
Nolan Fraticelli,75,Open,M,185,127.5,210,522.5,SBD,Single-ply,7
Fred Stammer,75,Open,M,177.5,122.5,210,510,SBD,Single-ply,8
Elliot Lee,75,Open,M,20,120,60,200,SBD,Single-ply,9
Adam Bassette,82.5,Open,M,272.5,182.5,247.5,702.5,SBD,Single-ply,1
Derrick Cabiles,82.5,Open,M,260,167.5,262.5,690,SBD,Single-ply,2
Keith Shirota,82.5,Open,M,282.5,150,240,672.5,SBD,Single-ply,3
Eddie Evanko,82.5,Open,M,225,150,250,625,SBD,Single-ply,4
George Kanahele,82.5,Open,M,200,167.5,250,617.5,SBD,Single-ply,5
R. Takabayashi,82.5,Open,M,242.5,155,205,602.5,SBD,Single-ply,6
Glenn Toma,82.5,Open,M,192.5,130,200,522.5,SBD,Single-ply,7
Julian Lee #1,90,Open,M,312.5,237.5,282.5,832.5,SBD,Single-ply,1
Eddie Ko,90,Open,M,260,165,255,680,SBD,Single-ply,2
Wayne Jandoc,90,Open,M,255,165,255,675,SBD,Single-ply,3
C. Suaninguit,90,Open,M,237.5,187.5,250,675,SBD,Single-ply,4
Vince Suetos,90,Open,M,272.5,160,227.5,660,SBD,Single-ply,5
Steve Gilleece,90,Open,M,247.5,155,237.5,640,SBD,Single-ply,6
Ross Kawamoto,90,Open,M,227.5,137.5,242.5,607.5,SBD,Single-ply,7
Eric Kuniyoshi,90,Open,M,205,132.5,227.5,565,SBD,Single-ply,8
Doug Andrade,90,Open,M,185,140,182.5,507.5,SBD,Single-ply,9
Ernie Martin,100,Open,M,310,190,295,795,SBD,Single-ply,1
Edgar Tesoro,100,Open,M,310,175,285,770,SBD,Single-ply,2
Andy Silva,100,Open,M,305,200,262.5,767.5,SBD,Single-ply,3
Aaron Nee,100,Open,M,277.5,192.5,270,740,SBD,Single-ply,4
Terrell Rucker,100,Open,M,260,160,317.5,737.5,SBD,Single-ply,5
Julian DeCoite,100,Open,M,252.5,162.5,272.5,687.5,SBD,Single-ply,6
Francis Maddela,100,Open,M,272.5,150,247.5,670,SBD,Single-ply,7
Fia Moe,100,Open,M,260,172.5,220,652.5,SBD,Single-ply,8
Joe Fernandez,100,Open,M,237.5,127.5,250,615,SBD,Single-ply,9
Wayne Sakamoto,100,Open,M,227.5,160,205,592.5,SBD,Single-ply,10
Malcolm Lutu,110,Open,M,370,210,297.5,877.5,SBD,Single-ply,1
Harold Nakagawa,110,Open,M,347.5,182.5,285,815,SBD,Single-ply,2
Wayne Baumann,110,Open,M,327.5,192.5,282.5,802.5,SBD,Single-ply,3
Kent Parker,110,Open,M,260,170,275,705,SBD,Single-ply,4
Buddy Paiva,110,Open,M,255,190,250,695,SBD,Single-ply,5
E. Rodrigues,110,Open,M,272.5,165,237.5,675,SBD,Single-ply,6
Harold Matthews,110,Open,M,230,170,240,640,SBD,Single-ply,7
Glenn Mitchell,125,Open,M,272.5,197.5,255,725,SBD,Single-ply,1
Brian Unten,125,Open,M,275,210,227.5,712.5,SBD,Single-ply,2
Jon Kaiser,125,Open,M,272.5,172.5,250,695,SBD,Single-ply,3
Randall Nahinu,125,Open,M,260,142.5,262.5,665,SBD,Single-ply,4
Tenisio Olive,125,Open,M,250,137.5,257.5,645,SBD,Single-ply,5
Greg Lefcourt,125+,Open,M,275,227.5,300,802.5,SBD,Single-ply,1
James Mersberg,125+,Open,M,250,192.5,205,647.5,SBD,Single-ply,2
Ertesi Afoa,125+,Open,M,162.5,102.5,205,470,SBD,Single-ply,3
