Name,WeightClassKg,Division,Sex,Best3SquatKg,Best3BenchKg,Best3DeadliftKg,TotalKg,Event,Equipment,Place
Joseph Yu,67.5,Open,M,,152.5,,152.5,B,Single-ply,1
Sheldon Weingust,67.5,Open,M,,152.5,,152.5,B,Single-ply,2
M. Stokke,67.5,Open,M,,132.5,,132.5,B,Single-ply,3
D. Gardner,75,Open,M,,112.5,,112.5,B,Single-ply,1
Duane Madere,82.5,Open,M,,180,,180,B,Single-ply,1
E. Wilkinson,90,Open,M,,210,,210,B,Single-ply,1
B. Fusilier,90,Open,M,,200,,200,B,Single-ply,2
T. Mata Jr,90,Open,M,,165,,165,B,Single-ply,3
E. Molina Jr,90,Open,M,,125,,125,B,Single-ply,4
T. Touchstone,100,Open,M,,227.5,,227.5,B,Single-ply,1
G. Windscheif,100,Open,M,,217.5,,217.5,B,Single-ply,2
M. Washington,100,Open,M,,157.5,,157.5,B,Single-ply,7
M. Lozano,100,Open,M,,192.5,,192.5,B,Single-ply,3
D. Muntz,100,Open,M,,165,,165,B,Single-ply,5
E. Molina Sr,100,Open,M,,170,,170,B,Single-ply,4
H. Thorsted,100,Open,M,,160,,160,B,Single-ply,6
C. Franklin,100,Open,M,,147.5,,147.5,B,Single-ply,8
R. Penn,110,Open,M,,215,,215,B,Single-ply,1
E. Bobo,110,Open,M,,197.5,,197.5,B,Single-ply,2
Flip Silva Jr,110,Open,M,,182.5,,182.5,B,Single-ply,3
J. Brogley,110,Open,M,,162.5,,162.5,B,Single-ply,4
Tiny Meeker,125,Open,M,,250,,250,B,Single-ply,1
John Stewart,125,Open,M,,237.5,,237.5,B,Single-ply,2
J. Ash,125+,Masters,M,,175,,175,B,Single-ply,1
Homer de la Rosa,125+,Masters,M,,172.5,,172.5,B,Single-ply,2
Sheldon Weingust,67.5,Masters,M,,122.5,,122.5,B,Single-ply,1
K. James,67.5,Masters,M,,122.5,,122.5,B,Single-ply,2
D. Gardner,75,Masters,M,,112.5,,112.5,B,Single-ply,1
T. Mata Jr,90,Masters,M,,165,,165,B,Single-ply,1
D. Shaw,90,Masters,M,,160,,160,B,Single-ply,2
D. Bennett,90,Masters,M,,,,,B,Single-ply,DQ
R. Penn,100,Masters,M,,215,,215,B,Single-ply,1
E. Molina Sr,100,Masters,M,,170,,170,B,Single-ply,2
B. Wright,100,Masters,M,,165,,165,B,Single-ply,3
Harold Bodden,100,Masters,M,,147.5,,147.5,B,Single-ply,4
Flip Silva Sr,100,Masters,M,,120,,120,B,Single-ply,5
Victor Burke,100,Masters,M,,107.5,,107.5,B,Single-ply,6
J. Brogley,110,Masters,M,,162.5,,162.5,B,Single-ply,1
J. Leitner,110,Masters,M,,160,,160,B,Single-ply,2
Bob Garza,125,Masters,M,,220,,220,B,Single-ply,1
Hal Hudson,125,Masters,M,,130,,130,B,Single-ply,2
M. Doucet,,Submasters,M,,125,,125,B,Single-ply,2
T. Smith,,Submasters,M,,147.5,,147.5,B,Single-ply,1
D. Springer,90,Submasters,M,,172.5,,172.5,B,Single-ply,1
D. Muntz,90,Submasters,M,,165,,165,B,Single-ply,2
Steve Lumpee #1,90,Submasters,M,,160,,160,B,Single-ply,3
John Hendrix,100,Submasters,M,,182.5,,182.5,B,Single-ply,1
R. Waterman,125,Submasters,M,,205,,205,B,Single-ply,1
K. Timm,75,Teen,M,,105,,105,B,Single-ply,1
J. Leitner,82.5,Teen,M,,125,,125,B,Single-ply,1
B. Kocurek,90,Teen,M,,137.5,,137.5,B,Single-ply,1
Henry Thomason,110,Teen,M,,150,,150,B,Single-ply,1
Katie Ford,75,Open,F,,72.5,,72.5,B,Single-ply,1
E. Prieto,125+,Below Class I,M,262.5,165,227.5,655,SBD,Single-ply,1
A. Lopez,125+,Below Class I,M,,,,,SBD,Single-ply,DQ
P. Teng,60,Below Class I,M,125,92.5,150,367.5,SBD,Single-ply,1
H. Adame,67.5,Below Class I,M,127.5,90,172.5,390,SBD,Single-ply,1
Michael Harvey,75,Below Class I,M,192.5,150,230,572.5,SBD,Single-ply,1
B. Cowey,75,Below Class I,M,207.5,137.5,205,550,SBD,Single-ply,2
C. Littlejohn,75,Below Class I,M,187.5,107.5,202.5,497.5,SBD,Single-ply,3
L. Genteman,75,Below Class I,M,165,117.5,202.5,485,SBD,Single-ply,4
A. Hernandez,75,Below Class I,M,142.5,102.5,150,395,SBD,Single-ply,5
Al Lewis,82.5,Below Class I,M,210,140,215,565,SBD,Single-ply,1
S. Anderson,82.5,Below Class I,M,172.5,127.5,215,515,SBD,Single-ply,2
D. Bradshaw,82.5,Below Class I,M,142.5,127.5,192.5,462.5,SBD,Single-ply,3
Brian Fusilier,90,Below Class I,M,275,200,272.5,747.5,SBD,Single-ply,1
H. Creech,90,Below Class I,M,240,157.5,227.5,625,SBD,Single-ply,2
H. Thorsted,90,Below Class I,M,210,160,230,600,SBD,Single-ply,3
M. Dugan,90,Below Class I,M,205,157.5,200,562.5,SBD,Single-ply,4
G. Ladewig,90,Below Class I,M,167.5,167.5,200,535,SBD,Single-ply,6
A. Barron,90,Below Class I,M,182.5,115,207.5,505,SBD,Single-ply,9
M. Pearce,90,Below Class I,M,175,120,230,525,SBD,Single-ply,7
C. Beall,90,Below Class I,M,182.5,117.5,212.5,512.5,SBD,Single-ply,8
I. Barela,90,Below Class I,M,200,155,182.5,537.5,SBD,Single-ply,5
B. Haines,100,Below Class I,M,260,162.5,260,682.5,SBD,Single-ply,1
Leroy Gutierrez,100,Below Class I,M,242.5,175,252.5,670,SBD,Single-ply,2
C. Goode,100,Below Class I,M,240,172.5,240,652.5,SBD,Single-ply,3
R. Gil,100,Below Class I,M,227.5,160,240,627.5,SBD,Single-ply,4
B. Moore #2,100,Below Class I,M,215,140,260,615,SBD,Single-ply,5
B. Beck,100,Below Class I,M,205,147.5,240,592.5,SBD,Single-ply,6
J. King,110,Below Class I,M,280,177.5,270,727.5,SBD,Single-ply,1
M. Land,110,Below Class I,M,245,182.5,255,682.5,SBD,Single-ply,2
D. Broseman,110,Below Class I,M,,,,,SBD,Single-ply,DQ
K. Kelly,125,Below Class I,M,300,150,255,705,SBD,Single-ply,1
Mike Dobrovolski,82.5,Masters 40-49,M,177.5,100,210,487.5,SBD,Single-ply,1
J. Bennett,90,Masters 40-49,M,105,70,137.5,312.5,SBD,Single-ply,1
Larry Mistric,100,Masters 40-49,M,275,187.5,287.5,750,SBD,Single-ply,1
B. Haines,100,Masters 40-49,M,260,162.5,260,682.5,SBD,Single-ply,2
C. Turco,100,Masters 40-49,M,260,165,240,665,SBD,Single-ply,3
William Cooper,100,Masters 40-49,M,227.5,115,295,637.5,SBD,Single-ply,5
Steve Rosenberg,100,Masters 40-49,M,250,145,255,650,SBD,Single-ply,4
Gabriel Moreno #1,100,Masters 40-49,M,247.5,152.5,227.5,627.5,SBD,Single-ply,6
J. Dziedzic,100,Masters 40-49,M,192.5,140,235,567.5,SBD,Single-ply,7
M. Villarreal,100,Masters 40-49,M,,,,,SBD,Single-ply,DQ
C. Garcia,110,Masters 40-49,M,327.5,130,272.5,730,SBD,Single-ply,1
M. McDaniel,125,Masters 40-49,M,280,185,287.5,752.5,SBD,Single-ply,1
C. Wahl,125+,Masters 50+,M,122.5,92.5,142.5,357.5,SBD,Single-ply,1
Cleveland Bodin,75,Masters 50+,M,147.5,115,170,432.5,SBD,Single-ply,1
Harold Bodden,100,Masters 50+,M,122.5,147.5,205,475,SBD,Single-ply,1
E. Kelley,110,Masters 50+,M,165,102.5,182.5,450,SBD,Single-ply,1
Ernie Surrell,125,Masters 50+,M,330,172.5,262.5,765,SBD,Single-ply,1
Bob Garza,125,Masters 50+,M,250,220,242.5,712.5,SBD,Single-ply,2
Hal Hudson,125,Masters 50+,M,202.5,130,240,572.5,SBD,Single-ply,3
Jeff Neal,125+,Open,M,365,232.5,312.5,910,SBD,Single-ply,1
M. McDaniel,125+,Open,M,332.5,167.5,285,785,SBD,Single-ply,2
D. Fleming,125+,Open,M,,,,,SBD,Single-ply,DQ
M. Vasquez,60,Open,M,182.5,90,180,452.5,SBD,Single-ply,1
Joseph Yu,67.5,Open,M,185,152.5,195,532.5,SBD,Single-ply,1
Johnny Vasquez,67.5,Open,M,205,132.5,187.5,525,SBD,Single-ply,2
T. Riffe,75,Open,M,205,125,240,570,SBD,Single-ply,2
A. Howard,75,Open,M,182.5,147.5,245,575,SBD,Single-ply,1
Duane Madere,82.5,Open,M,252.5,180,240,672.5,SBD,Single-ply,1
P. Wainscott,82.5,Open,M,240,160,245,645,SBD,Single-ply,2
G. Centeno,82.5,Open,M,222.5,152.5,235,610,SBD,Single-ply,3
Barry Shaw,90,Open,M,295,182.5,287.5,765,SBD,Single-ply,1
Innocent Ukpong,90,Open,M,300,152.5,305,757.5,SBD,Single-ply,2
G. Viggiano,90,Open,M,210,155,280,645,SBD,Single-ply,3
R. Nesuda,100,Open,M,257.5,165,272.5,695,SBD,Single-ply,1
M. Lozano,100,Open,M,225,192.5,225,642.5,SBD,Single-ply,2
S. Morgan,100,Open,M,,,,,SBD,Single-ply,DQ
Gary Kaiser,75,Submasters,M,237.5,137.5,245,620,SBD,Single-ply,1
T. May,75,Submasters,M,170,105,200,475,SBD,Single-ply,2
Duane Madere,82.5,Submasters,M,252.5,180,240,672.5,SBD,Single-ply,1
P. Wainscott,82.5,Submasters,M,240,160,245,645,SBD,Single-ply,2
Tony Hambric,82.5,Submasters,M,205,157.5,265,627.5,SBD,Single-ply,3
Barry Shaw,90,Submasters,M,295,182.5,287.5,765,SBD,Single-ply,1
R. Thomas #10,90,Submasters,M,142.5,125,170,437.5,SBD,Single-ply,2
R. Nesuda,100,Submasters,M,257.5,165,272.5,695,SBD,Single-ply,1
S. Shaeffer,125+,Teen,M,200,107.5,182.5,490,SBD,Single-ply,1
Michael Denmon,52,Teen,M,165,75,167.5,407.5,SBD,Single-ply,1
B. Byrd,82.5,Teen,M,195,140,240,575,SBD,Single-ply,2
A. Bossen,82.5,Teen,M,222.5,137.5,227.5,587.5,SBD,Single-ply,1
J. Fabela,82.5,Teen,M,,,,,SBD,Single-ply,DQ
B. Kocurek,90,Teen,M,182.5,137.5,227.5,547.5,SBD,Single-ply,1
M. Nolan,90,Teen,M,195,117.5,197.5,510,SBD,Single-ply,2
Henry Thomason,110,Teen,M,227.5,150,200,577.5,SBD,Single-ply,1
Susan Rinn,48,Open,F,115,75,137.5,327.5,SBD,Single-ply,1
Valerie Tyree,52,Open,F,137.5,77.5,177.5,392.5,SBD,Single-ply,1
Lee Denmon,56,Open,F,142.5,85,160,387.5,SBD,Single-ply,1
Jill Cowan,60,Open,F,132.5,75,172.5,380,SBD,Single-ply,1
S. Shurina,67.5,Open,F,115,62.5,127.5,305,SBD,Single-ply,1
Leigh Smith,75,Open,F,130,77.5,165,372.5,SBD,Single-ply,1
Erin Snouffer,82.5,Open,F,130,67.5,175,372.5,SBD,Single-ply,1
Becky McColley,56,Masters,F,75,37.5,92.5,205,SBD,Single-ply,1
Jill Cowan,60,Masters,F,132.5,75,172.5,380,SBD,Single-ply,1
Kassie Kaiser,48,Teen,F,75,42.5,90,207.5,SBD,Single-ply,1
Yvonne Jimenez,52,Teen,F,105,47.5,105,257.5,SBD,Single-ply,1
Katie Ford,75,Teen,F,137.5,72.5,132.5,342.5,SBD,Single-ply,1
