Name,Age,BodyweightKg,Division,Sex,WeightClassKg,Best3SquatKg,Best3BenchKg,Best3DeadliftKg,TotalKg,Event,Equipment,Place,Country
Judy Gedney,,,Masters 4,F,44,112.5,55,127.5,295,SBD,Single-ply,1,USA
Shae Brost,,,Teen 2,F,44,95,42.5,120,257.5,SBD,Single-ply,1,
M. Hart,,,Teen 1,F,44,70,30,92.5,192.5,SBD,Single-ply,1,
Paula Kovalcik,,,Open,F,47.5,125,70,145,340,SBD,Single-ply,1,
Greenthal,,,Teen 1,F,47.5,95,35,105,235,SBD,Single-ply,1,
Whiting,,,Masters 2,F,47.5,82.5,50,97.5,230,SBD,Single-ply,1,
Donna McKinney,,,Open,F,50.5,155,82.5,150,387.5,SBD,Single-ply,1,
Lane #5,,,Open,F,50.5,95,42.5,105,242.5,SBD,Single-ply,2,
Bodlak,,,Teen 2,F,50.5,107.5,50,120,277.5,SBD,Single-ply,1,
Jacqueline Davis,,,Open,F,53,155,77.5,177.5,410,SBD,Single-ply,1,
Gochenaur,,,Masters 2,F,53,117.5,50,125,292.5,SBD,Single-ply,1,
Sullivan,,,Masters 3,F,53,122.5,67.5,122.5,312.5,SBD,Single-ply,1,
Barun,,,Masters 5,F,53,95,40,117.5,252.5,SBD,Single-ply,1,
Cane,,,Open,F,55.5,142.5,70,160,372.5,SBD,Single-ply,1,
A. Dutzmann,,,Teen 3,F,55.5,107.5,60,127.5,295,SBD,Single-ply,1,
Ford,,,Open,F,58.5,135,70,187.5,392.5,SBD,Single-ply,1,
Sarras,,,Open,F,58.5,122.5,52.5,130,305,SBD,Single-ply,2,
Frawloy,,,Teen 3,F,58.5,125,55,140,320,SBD,Single-ply,1,
Ellen Stein,,,Masters 1,F,58.5,147.5,65,157.5,370,SBD,Single-ply,1,
Dara Lehans-Scott,,,Masters 1,F,63,155,65,172.5,392.5,SBD,Single-ply,1,
Reif,,,Masters 2,F,63,,,,,SBD,Single-ply,DQ,
Paula Houston,,,Open,F,70,180,92.5,190,462.5,SBD,Single-ply,1,
Traub,,,Teen 2,F,70,132.5,50,140,322.5,SBD,Single-ply,1,
Susan Gill,,,Masters 2,F,70,105,55,152.5,312.5,SBD,Single-ply,1,
Margarette Rubinsoky,,,Masters 4,F,70,102.5,57.5,140,300,SBD,Single-ply,1,
Hackney,,,Masters 4,F,70,95,40,125,260,SBD,Single-ply,2,
Ojanen,,,Open,F,80,205,115,167.5,487.5,SBD,Single-ply,1,
Sparks #2,,,Teen 2,F,80,150,60,135,345,SBD,Single-ply,1,
Nikki Avey,,,Open,F,90,227.5,132.5,190,550,SBD,Single-ply,1,
Erin Eisenberg,18,,Teen 3,F,90,187.5,80,195,462.5,SBD,Single-ply,1,
Regan,,,Masters 2,F,90+,187.5,107.5,185,480,SBD,Single-ply,1,
Kiriaki,,,Teen 2,F,90+,190,80,162.5,432.5,SBD,Single-ply,1,
Krystyn Dean,,,Masters 4,F,90+,120,80,165,365,SBD,Single-ply,1,
Steve Snyder #1,,,Open,M,52,155,92.5,192.5,440,SBD,Single-ply,1,USA
Jenkins,,,Teen 1,M,52,110,67.5,150,327.5,SBD,Single-ply,1,
Robinson,,,Teen 2,M,52,125,67.5,155,347.5,SBD,Single-ply,1,
Wadhwa,,,Teen 3,M,52,155,82.5,172.5,410,SBD,Single-ply,1,
Allan Whigham,,,Juniors,M,52,170,87.5,197.5,455,SBD,Single-ply,1,USA
Dave Weiss,,,Open,M,56,172.5,117.5,232.5,522.5,SBD,Single-ply,1,USA
Derek Larthey,14,,Teen 1,M,56,127.5,85,152.5,365,SBD,Single-ply,1,
Marcus Wynn,,,Teen 2,M,56,197.5,90,190,477.5,SBD,Single-ply,1,
Freddie Higgins,,,Masters 1,M,56,167.5,130,187.5,485,SBD,Single-ply,1,USA
Bradford Olson,,,Open,M,60,227.5,140,220,587.5,SBD,Single-ply,1,
J. Tijerina,,,Juniors,M,60,185,102.5,205,492.5,SBD,Single-ply,1,
J. Oliviera,,,Teen 2,M,60,137.5,82.5,182.5,402.5,SBD,Single-ply,1,
Ken Westbrook,,,Masters 1,M,60,217.5,105,195,517.5,SBD,Single-ply,1,USA
Ira Rosen,46,,Masters 2,M,60,172.5,95,197.5,465,SBD,Single-ply,1,
Fred Glass,,,Masters 4,M,60,147.5,55,170,372.5,SBD,Single-ply,1,
Nori Kawasaki,67,,Masters 6,M,60,150,87.5,172.5,410,SBD,Single-ply,1,USA
R. Nolan,,,Masters 7,M,60,95,62.5,127.5,285,SBD,Single-ply,1,
Tony Conyers,,,Open,M,67.5,287.5,182.5,302.5,772.5,SBD,Single-ply,1,USA
Freedman,,,Open,M,67.5,157.5,95,202.5,455,SBD,Single-ply,2,
Adrian,,,Teen 2,M,67.5,125,97.5,155,377.5,SBD,Single-ply,2,
D. Wright,,,Teen 2,M,67.5,195,95,195,485,SBD,Single-ply,1,
A. Holcomb,,,Teen 3,M,67.5,200,120,192.5,512.5,SBD,Single-ply,1,
Brendan Rohan,,,Masters 1,M,67.5,182.5,137.5,230,550,SBD,Single-ply,1,
J. Martin,,,Masters 2,M,67.5,185,105,195,485,SBD,Single-ply,1,
Jules Pellegrino,,,Masters 3,M,67.5,185,125,177.5,487.5,SBD,Single-ply,1,USA
Robert Cortes,66,,Masters 6,M,67.5,185,125,225,535,SBD,Single-ply,1,USA
Martin Beavers,,,Open,M,75,250,142.5,275,667.5,SBD,Single-ply,1,USA
B. Harlow,,,Teen 1,M,75,185,92.5,190,467.5,SBD,Single-ply,1,
J. Decker,,,Teen 2,M,75,217.5,120,245,582.5,SBD,Single-ply,1,
Festing,,,Teen 3,M,75,182.5,120,227.5,530,SBD,Single-ply,3,
John Walters,18,,Teen 3,M,75,235,147.5,255,637.5,SBD,Single-ply,1,
Hortan,,,Teen 3,M,75,200,120,215,535,SBD,Single-ply,2,
Francis Rudy Ruettiger,,,Masters 1,M,75,227.5,130,245,602.5,SBD,Single-ply,1,USA
Richard Cirigliano,,,Masters 2,M,75,205,125,250,580,SBD,Single-ply,1,USA
James Krueger,,,Masters 3,M,75,,,,,SBD,Single-ply,DQ,USA
Richard Flores #1,58,,Masters 4,M,75,200,122.5,232.5,555,SBD,Single-ply,1,USA
Archmbault,,,Masters 7,M,75,150,90,175,415,SBD,Single-ply,1,
Harrison Benner,,,Masters 8,M,75,115,85,155,355,SBD,Single-ply,1,
Ray Benemerito,,,Open,M,82.5,300,175,320,795,SBD,Single-ply,1,USA
L. Johnson,,,Teen 1,M,82.5,172.5,100,182.5,455,SBD,Single-ply,1,
Dennis Riney,,,Juniors,M,82.5,227.5,172.5,215,615,SBD,Single-ply,1,
David Wiley,,,Masters 1,M,82.5,242.5,137.5,252.5,632.5,SBD,Single-ply,1,
R. Fisher,,,Masters 2,M,82.5,227.5,127.5,272.5,627.5,SBD,Single-ply,1,
Rich Glumac,53,,Masters 3,M,82.5,290,127.5,272.5,690,SBD,Single-ply,1,USA
James Rouse,,,Masters 4,M,82.5,227.5,175,227.5,630,SBD,Single-ply,1,
G. Burt,,,Masters 5,M,82.5,147.5,102.5,210,460,SBD,Single-ply,1,
Calvin Everett,,,Masters 6,M,82.5,150,75,185,410,SBD,Single-ply,1,
B. Acosta,,,Masters 7,M,82.5,122.5,75,157.5,355,SBD,Single-ply,1,
Joseph McAuliffe,,,Open,M,90,322.5,207.5,290,820,SBD,Single-ply,1,USA
Mark Lane,,,Open,M,90,255,145,270,670,SBD,Single-ply,2,
Mike Kulchinsky,,,Open,M,90,255,140,265,660,SBD,Single-ply,3,
J. Ford,,,Teen 2,M,90,200,110,222.5,532.5,SBD,Single-ply,1,
C. Danzer,,,Teen 2,M,90,145,95,205,445,SBD,Single-ply,2,
B. Watson,,,Teen 3,M,90,250,162.5,262.5,675,SBD,Single-ply,1,
F. Smalls,,,Juniors,M,90,250,162.5,272.5,685,SBD,Single-ply,1,
Larry Traub,,,Masters 1,M,90,272.5,155,295,722.5,SBD,Single-ply,1,
F. Rice,,,Masters 3,M,90,247.5,122.5,287.5,657.5,SBD,Single-ply,1,
Bill Remley,,,Masters 6,M,90,215,132.5,227.5,575,SBD,Single-ply,1,
W. Ladd,,,Masters 6,M,90,205,115,240,560,SBD,Single-ply,2,
Charles Lee,,,Masters 8,M,90,145,115,200,460,SBD,Single-ply,1,
Jim Morton,,,Open,M,100,345,185,347.5,877.5,SBD,Single-ply,1,
B. Becker,,,Teen 2,M,100,232.5,145,222.5,600,SBD,Single-ply,1,
Ed Koo,,,Teen 3,M,100,252.5,142.5,282.5,677.5,SBD,Single-ply,1,
James Cahill,,,Juniors,M,100,287.5,172.5,332.5,792.5,SBD,Single-ply,1,USA
Leslie Pilling,,,Masters 1,M,100,310,167.5,305,782.5,SBD,Single-ply,1,
Michael Musto,,,Masters 1,M,100,295,182.5,295,772.5,SBD,Single-ply,2,
Stanley Krawczyk,,,Open,M,100,205,150,220,575,SBD,Single-ply,2,
Victor Elliott,,,Masters 2,M,100,292.5,160,280,732.5,SBD,Single-ply,1,
Kirk Hansen,,,Masters 3,M,100,250,170,250,670,SBD,Single-ply,1,
Al King,,,Masters 3,M,100,240,140,275,655,SBD,Single-ply,2,
J. Dean,,,Masters 6,M,100,170,132.5,215,517.5,SBD,Single-ply,1,
Andrew Stewart,,,Open,M,110,367.5,195,372.5,935,SBD,Single-ply,1,USA
Phil Andrews,,,Masters 1,M,110,265,180,330,775,SBD,Single-ply,1,
Thiessen,,,Open,M,110,250,152.5,,,SBD,Single-ply,DQ,
Matthew Maltby,16,,Teen 2,M,110,225,130,210,565,SBD,Single-ply,1,
McFarland,,,Teen 2,M,110,205,125,215,545,SBD,Single-ply,2,
P. Battle,,,Teen 3,M,110,272.5,142.5,272.5,687.5,SBD,Single-ply,1,
D. Garris,,,Juniors,M,110,272.5,192.5,272.5,737.5,SBD,Single-ply,1,
Johnny Graham,,,Masters 1,M,110,305,155,290,750,SBD,Single-ply,2,
J. Miller #11,,,Masters 2,M,110,277.5,172.5,257.5,707.5,SBD,Single-ply,1,
Willan,,,Masters 2,M,110,255,135,285,675,SBD,Single-ply,2,
Ron Spikes,,,Masters 3,M,110,222.5,142.5,285,650,SBD,Single-ply,1,
S. Chatis,,,Masters 4,M,110,240,135,250,625,SBD,Single-ply,1,
Lou Corulli,,,Masters 5,M,110,230,85,230,545,SBD,Single-ply,1,
V. Starker,,,Masters 7,M,110,167.5,122.5,182.5,472.5,SBD,Single-ply,1,
Nick Best,,,Open,M,125,345,220,300,865,SBD,Single-ply,1,
A. Taylor,,,Teen 2,M,125,232.5,115,205,552.5,SBD,Single-ply,1,
A. Stiverson,,,Teen 3,M,125,255,157.5,255,667.5,SBD,Single-ply,1,
Westerhold,,,Juniors,M,125,272.5,175,300,747.5,SBD,Single-ply,1,
Epeli Liqari,,,Masters 1,M,125,272.5,170,285,727.5,SBD,Single-ply,1,
Roy Simmons,,,Masters 1,M,125,267.5,170,282.5,720,SBD,Single-ply,2,
Gary Krueger,,,Masters 2,M,125,292.5,180,240,712.5,SBD,Single-ply,1,
Robert Smith,,,Masters 3,M,125,242.5,155,242.5,640,SBD,Single-ply,1,
Mark Phillippi,,,Open,M,145,367.5,235,365,967.5,SBD,Single-ply,1,USA
B. Kesecker,,,Teen 2,M,145,272.5,117.5,220,610,SBD,Single-ply,1,
Matt Lake,,,Teen 3,M,145,255,202.5,247.5,705,SBD,Single-ply,1,
M. Werges,,,Juniors,M,145,275,177.5,297.5,750,SBD,Single-ply,1,
Brett McCune,,,Masters 2,M,145,277.5,165,277.5,720,SBD,Single-ply,1,
J. Lindsley,,,Masters 3,M,145,,,,,SBD,Single-ply,DQ,
H. Budwin,,,Masters 4,M,145,187.5,135,200,522.5,SBD,Single-ply,1,
Beau Moore #1,,,Open,M,145+,345,250,320,915,SBD,Single-ply,1,USA
T. Kelly,,,Open,M,145+,240,170,200,610,SBD,Single-ply,2,
Paul Wrenn,,,Masters 2,M,145+,327.5,160,267.5,755,SBD,Single-ply,1,USA
Ralph Dirksen,,169.6,Masters 2,M,145+,262.5,182.5,262.5,707.5,SBD,Single-ply,2,
