Event,Sex,Name,State,BodyweightKg,WeightClassKg,Division,Best3SquatKg,Best3BenchKg,Best3DeadliftKg,TotalKg,Equipment,Place
SBD,F,M Levesque-Hartle,SK,73.9,75,Open,140.0,72.5,130.0,342.5,Single-ply,3
SBD,F,Kim Dennis,BC,67.6,75,Open,127.5,72.5,147.5,347.5,Single-ply,2
SBD,F,Karen Wilkinson,IN,74,75,Open,180.0,115.0,205.0,500.0,Single-ply,1
SBD,F,Patsy Noble,SK,65.8,67.5,Open,120.0,75.0,152.5,347.5,Single-ply,3
SBD,F,Mariam Power,BC,66.7,67.5,Open,157.5,87.5,177.5,422.5,Single-ply,1
SBD,F,Glorianne Papolis,ON,67.3,67.5,Open,135.0,87.5,150.0,372.5,Single-ply,2
